%YAML 1.1
%TAG !u! tag:unity3d.com,2011:
--- !u!1 &2140356448965443533
GameObject:
  m_ObjectHideFlags: 0
  m_CorrespondingSourceObject: {fileID: 0}
  m_PrefabInstance: {fileID: 0}
  m_PrefabAsset: {fileID: 0}
  serializedVersion: 6
  m_Component:
  - component: {fileID: 2140356448965443532}
  - component: {fileID: 2140356448965443571}
  - component: {fileID: 2140356448965443570}
  m_Layer: 0
  m_Name: big orange circle
  m_TagString: Orange
  m_Icon: {fileID: 0}
  m_NavMeshLayer: 0
  m_StaticEditorFlags: 0
  m_IsActive: 1
--- !u!4 &2140356448965443532
Transform:
  m_ObjectHideFlags: 0
  m_CorrespondingSourceObject: {fileID: 0}
  m_PrefabInstance: {fileID: 0}
  m_PrefabAsset: {fileID: 0}
  m_GameObject: {fileID: 2140356448965443533}
  m_LocalRotation: {x: -0, y: -0, z: -0, w: 1}
  m_LocalPosition: {x: 2.22, y: 2.22, z: 0}
  m_LocalScale: {x: 1, y: 1, z: 1}
  m_Children: []
  m_Father: {fileID: 2140356449332496031}
  m_RootOrder: 1
  m_LocalEulerAnglesHint: {x: 0, y: 0, z: 0}
--- !u!212 &2140356448965443571
SpriteRenderer:
  m_ObjectHideFlags: 0
  m_CorrespondingSourceObject: {fileID: 0}
  m_PrefabInstance: {fileID: 0}
  m_PrefabAsset: {fileID: 0}
  m_GameObject: {fileID: 2140356448965443533}
  m_Enabled: 1
  m_CastShadows: 0
  m_ReceiveShadows: 0
  m_DynamicOccludee: 1
  m_MotionVectors: 1
  m_LightProbeUsage: 1
  m_ReflectionProbeUsage: 1
  m_RayTracingMode: 0
  m_RayTraceProcedural: 0
  m_RenderingLayerMask: 1
  m_RendererPriority: 0
  m_Materials:
  - {fileID: 10754, guid: 0000000000000000f000000000000000, type: 0}
  m_StaticBatchInfo:
    firstSubMesh: 0
    subMeshCount: 0
  m_StaticBatchRoot: {fileID: 0}
  m_ProbeAnchor: {fileID: 0}
  m_LightProbeVolumeOverride: {fileID: 0}
  m_ScaleInLightmap: 1
  m_ReceiveGI: 1
  m_PreserveUVs: 0
  m_IgnoreNormalsForChartDetection: 0
  m_ImportantGI: 0
  m_StitchLightmapSeams: 1
  m_SelectedEditorRenderState: 0
  m_MinimumChartSize: 4
  m_AutoUVMaxDistance: 0.5
  m_AutoUVMaxAngle: 89
  m_LightmapParameters: {fileID: 0}
  m_SortingLayerID: 0
  m_SortingLayer: 0
  m_SortingOrder: 0
  m_Sprite: {fileID: -1809329319283652862, guid: 4e55d34ad6c5aa74b91396def637b40b, type: 3}
  m_Color: {r: 1, g: 1, b: 1, a: 1}
  m_FlipX: 0
  m_FlipY: 0
  m_DrawMode: 0
  m_Size: {x: 4.46, y: 4.46}
  m_AdaptiveModeThreshold: 0.5
  m_SpriteTileMode: 0
  m_WasSpriteAssigned: 1
  m_MaskInteraction: 0
  m_SpriteSortPoint: 0
--- !u!60 &2140356448965443570
PolygonCollider2D:
  m_ObjectHideFlags: 0
  m_CorrespondingSourceObject: {fileID: 0}
  m_PrefabInstance: {fileID: 0}
  m_PrefabAsset: {fileID: 0}
  m_GameObject: {fileID: 2140356448965443533}
  m_Enabled: 1
  m_Density: 1
  m_Material: {fileID: 0}
  m_IsTrigger: 0
  m_UsedByEffector: 0
  m_UsedByComposite: 0
  m_Offset: {x: 0, y: 0}
  m_SpriteTilingProperty:
    border: {x: 0, y: 0, z: 0, w: 0}
    pivot: {x: 0.5, y: 0.5}
    oldSize: {x: 4.46, y: 4.46}
    newSize: {x: 4.46, y: 4.46}
    adaptiveTilingThreshold: 0.5
    drawMode: 0
    adaptiveTiling: 0
  m_AutoTiling: 0
  m_Points:
    m_Paths:
    - - {x: 2.21, y: -1.63}
      - {x: 2.1599998, y: -1.27}
      - {x: 2.1299999, y: -1.15}
      - {x: 2.06, y: -0.89}
      - {x: 1.99, y: -0.71999997}
      - {x: 1.9, y: -0.48999998}
      - {x: 1.87, y: -0.42}
      - {x: 1.68, y: -0.03}
      - {x: 1.64, y: 0.04}
      - {x: 1.5799999, y: 0.14}
      - {x: 1.42, y: 0.38}
      - {x: 1.3, y: 0.53999996}
      - {x: 1.16, y: 0.7}
      - {x: 1.0799999, y: 0.78999996}
      - {x: 0.78999996, y: 1.0799999}
      - {x: 0.7, y: 1.16}
      - {x: 0.58, y: 1.26}
      - {x: 0.44, y: 1.37}
      - {x: 0.29999998, y: 1.4699999}
      - {x: 0.14, y: 1.5799999}
      - {x: -0.01, y: 1.67}
      - {x: -0.35, y: 1.8399999}
      - {x: -0.68, y: 1.9799999}
      - {x: -0.96, y: 2.07}
      - {x: -1.0699999, y: 2.1}
      - {x: -1.37, y: 2.1699998}
      - {x: -1.54, y: 2.2}
      - {x: -1.77, y: 2.23}
      - {x: -2.23, y: 2.23}
      - {x: -2.23, y: 1.4399999}
      - {x: -2.21, y: 1.42}
      - {x: -1.9499999, y: 1.41}
      - {x: -1.8399999, y: 1.4}
      - {x: -1.68, y: 1.38}
      - {x: -1.56, y: 1.36}
      - {x: -1.38, y: 1.31}
      - {x: -1.29, y: 1.3}
      - {x: -1.06, y: 1.23}
      - {x: -0.95, y: 1.1899999}
      - {x: -0.72999996, y: 1.1}
      - {x: -0.48, y: 0.97999996}
      - {x: -0.45999998, y: 0.96}
      - {x: -0.29, y: 0.85999995}
      - {x: -0.14, y: 0.76}
      - {x: 0.07, y: 0.61}
      - {x: 0.19999999, y: 0.5}
      - {x: 0.21, y: 0.5}
      - {x: 0.5, y: 0.19999999}
      - {x: 0.61, y: 0.07}
      - {x: 0.87, y: -0.31}
      - {x: 0.96999997, y: -0.48}
      - {x: 1.09, y: -0.69}
      - {x: 1.09, y: -0.71}
      - {x: 1.13, y: -0.79999995}
      - {x: 1.1899999, y: -0.93}
      - {x: 1.2099999, y: -1.02}
      - {x: 1.28, y: -1.23}
      - {x: 1.3399999, y: -1.4699999}
      - {x: 1.36, y: -1.5699999}
      - {x: 1.4, y: -1.86}
      - {x: 1.41, y: -1.9799999}
      - {x: 1.42, y: -2.22}
      - {x: 1.43, y: -2.23}
      - {x: 2.23, y: -2.23}
      - {x: 2.23, y: -1.8}
--- !u!1 &2140356449332496025
GameObject:
  m_ObjectHideFlags: 0
  m_CorrespondingSourceObject: {fileID: 0}
  m_PrefabInstance: {fileID: 0}
  m_PrefabAsset: {fileID: 0}
  serializedVersion: 6
  m_Component:
  - component: {fileID: 2140356449332496031}
  - component: {fileID: 2140356449332496024}
  - component: {fileID: 5013296821535576487}
  m_Layer: 0
  m_Name: Big Colour Circle 1
  m_TagString: Point
  m_Icon: {fileID: 0}
  m_NavMeshLayer: 0
  m_StaticEditorFlags: 0
  m_IsActive: 1
--- !u!4 &2140356449332496031
Transform:
  m_ObjectHideFlags: 0
  m_CorrespondingSourceObject: {fileID: 0}
  m_PrefabInstance: {fileID: 0}
  m_PrefabAsset: {fileID: 0}
  m_GameObject: {fileID: 2140356449332496025}
  m_LocalRotation: {x: 0, y: 0, z: 0, w: 1}
  m_LocalPosition: {x: 0, y: 5.18, z: 0}
  m_LocalScale: {x: 0.3, y: 0.3, z: 1}
  m_Children:
  - {fileID: 2140356449939434584}
  - {fileID: 2140356448965443532}
  - {fileID: 2140356449711957399}
  - {fileID: 2140356450236930648}
  m_Father: {fileID: 0}
  m_RootOrder: 0
  m_LocalEulerAnglesHint: {x: 0, y: 0, z: 0}
--- !u!114 &2140356449332496024
MonoBehaviour:
  m_ObjectHideFlags: 0
  m_CorrespondingSourceObject: {fileID: 0}
  m_PrefabInstance: {fileID: 0}
  m_PrefabAsset: {fileID: 0}
  m_GameObject: {fileID: 2140356449332496025}
  m_Enabled: 1
  m_EditorHideFlags: 0
  m_Script: {fileID: 11500000, guid: b57b9c42c49a9804f8683f12835fb1f1, type: 3}
  m_Name: 
  m_EditorClassIdentifier: 
  rotationSpeed: 100
--- !u!58 &5013296821535576487
CircleCollider2D:
  m_ObjectHideFlags: 0
  m_CorrespondingSourceObject: {fileID: 0}
  m_PrefabInstance: {fileID: 0}
  m_PrefabAsset: {fileID: 0}
  m_GameObject: {fileID: 2140356449332496025}
  m_Enabled: 1
  m_Density: 1
  m_Material: {fileID: 0}
  m_IsTrigger: 0
  m_UsedByEffector: 0
  m_UsedByComposite: 0
  m_Offset: {x: 0, y: 0}
  serializedVersion: 2
  m_Radius: 3.15
--- !u!1 &2140356449711957392
GameObject:
  m_ObjectHideFlags: 0
  m_CorrespondingSourceObject: {fileID: 0}
  m_PrefabInstance: {fileID: 0}
  m_PrefabAsset: {fileID: 0}
  serializedVersion: 6
  m_Component:
  - component: {fileID: 2140356449711957399}
  - component: {fileID: 2140356449711957398}
  - component: {fileID: 2140356449711957397}
  m_Layer: 0
  m_Name: big yellow circle
  m_TagString: Yellow
  m_Icon: {fileID: 0}
  m_NavMeshLayer: 0
  m_StaticEditorFlags: 0
  m_IsActive: 1
--- !u!4 &2140356449711957399
Transform:
  m_ObjectHideFlags: 0
  m_CorrespondingSourceObject: {fileID: 0}
  m_PrefabInstance: {fileID: 0}
  m_PrefabAsset: {fileID: 0}
  m_GameObject: {fileID: 2140356449711957392}
  m_LocalRotation: {x: -0, y: -0, z: -0, w: 1}
  m_LocalPosition: {x: -2.22, y: -2.22, z: 0}
  m_LocalScale: {x: 1, y: 1, z: 1}
  m_Children: []
  m_Father: {fileID: 2140356449332496031}
  m_RootOrder: 2
  m_LocalEulerAnglesHint: {x: 0, y: 0, z: 0}
--- !u!212 &2140356449711957398
SpriteRenderer:
  m_ObjectHideFlags: 0
  m_CorrespondingSourceObject: {fileID: 0}
  m_PrefabInstance: {fileID: 0}
  m_PrefabAsset: {fileID: 0}
  m_GameObject: {fileID: 2140356449711957392}
  m_Enabled: 1
  m_CastShadows: 0
  m_ReceiveShadows: 0
  m_DynamicOccludee: 1
  m_MotionVectors: 1
  m_LightProbeUsage: 1
  m_ReflectionProbeUsage: 1
  m_RayTracingMode: 0
  m_RayTraceProcedural: 0
  m_RenderingLayerMask: 1
  m_RendererPriority: 0
  m_Materials:
  - {fileID: 10754, guid: 0000000000000000f000000000000000, type: 0}
  m_StaticBatchInfo:
    firstSubMesh: 0
    subMeshCount: 0
  m_StaticBatchRoot: {fileID: 0}
  m_ProbeAnchor: {fileID: 0}
  m_LightProbeVolumeOverride: {fileID: 0}
  m_ScaleInLightmap: 1
  m_ReceiveGI: 1
  m_PreserveUVs: 0
  m_IgnoreNormalsForChartDetection: 0
  m_ImportantGI: 0
  m_StitchLightmapSeams: 1
  m_SelectedEditorRenderState: 0
  m_MinimumChartSize: 4
  m_AutoUVMaxDistance: 0.5
  m_AutoUVMaxAngle: 89
  m_LightmapParameters: {fileID: 0}
  m_SortingLayerID: 0
  m_SortingLayer: 0
  m_SortingOrder: 0
  m_Sprite: {fileID: 705421451681104287, guid: 4e55d34ad6c5aa74b91396def637b40b, type: 3}
  m_Color: {r: 1, g: 1, b: 1, a: 1}
  m_FlipX: 0
  m_FlipY: 0
  m_DrawMode: 0
  m_Size: {x: 4.46, y: 4.46}
  m_AdaptiveModeThreshold: 0.5
  m_SpriteTileMode: 0
  m_WasSpriteAssigned: 1
  m_MaskInteraction: 0
  m_SpriteSortPoint: 0
--- !u!60 &2140356449711957397
PolygonCollider2D:
  m_ObjectHideFlags: 0
  m_CorrespondingSourceObject: {fileID: 0}
  m_PrefabInstance: {fileID: 0}
  m_PrefabAsset: {fileID: 0}
  m_GameObject: {fileID: 2140356449711957392}
  m_Enabled: 1
  m_Density: 1
  m_Material: {fileID: 0}
  m_IsTrigger: 0
  m_UsedByEffector: 0
  m_UsedByComposite: 0
  m_Offset: {x: 0, y: 0}
  m_SpriteTilingProperty:
    border: {x: 0, y: 0, z: 0, w: 0}
    pivot: {x: 0.5, y: 0.5}
    oldSize: {x: 4.46, y: 4.46}
    newSize: {x: 4.46, y: 4.46}
    adaptiveTilingThreshold: 0.5
    drawMode: 0
    adaptiveTiling: 0
  m_AutoTiling: 0
  m_Points:
    m_Paths:
    - - {x: 1.9499999, y: -1.41}
      - {x: 1.68, y: -1.38}
      - {x: 1.62, y: -1.37}
      - {x: 1.4599999, y: -1.3399999}
      - {x: 1.3, y: -1.3}
      - {x: 1.09, y: -1.24}
      - {x: 0.95, y: -1.1899999}
      - {x: 0.84999996, y: -1.15}
      - {x: 0.71, y: -1.09}
      - {x: 0.5, y: -0.98999995}
      - {x: 0.48, y: -0.96999997}
      - {x: 0.39, y: -0.91999996}
      - {x: 0.16, y: -0.78}
      - {x: -0.07, y: -0.61}
      - {x: -0.19999999, y: -0.5}
      - {x: -0.48999998, y: -0.22}
      - {x: -0.48999998, y: -0.21}
      - {x: -0.65, y: -0.02}
      - {x: -0.87, y: 0.31}
      - {x: -0.96999997, y: 0.48}
      - {x: -1.0799999, y: 0.66999996}
      - {x: -1.0799999, y: 0.69}
      - {x: -1.15, y: 0.84999996}
      - {x: -1.1999999, y: 0.97999996}
      - {x: -1.25, y: 1.14}
      - {x: -1.28, y: 1.23}
      - {x: -1.3399999, y: 1.4699999}
      - {x: -1.39, y: 1.77}
      - {x: -1.4, y: 1.86}
      - {x: -1.41, y: 1.9799999}
      - {x: -1.42, y: 2.22}
      - {x: -1.43, y: 2.23}
      - {x: -2.23, y: 2.23}
      - {x: -2.23, y: 1.8}
      - {x: -2.21, y: 1.63}
      - {x: -2.19, y: 1.49}
      - {x: -2.1699998, y: 1.38}
      - {x: -2.11, y: 1.11}
      - {x: -2.05, y: 0.89}
      - {x: -1.99, y: 0.71999997}
      - {x: -1.9399999, y: 0.59}
      - {x: -1.87, y: 0.42}
      - {x: -1.68, y: 0.03}
      - {x: -1.64, y: -0.04}
      - {x: -1.5799999, y: -0.14}
      - {x: -1.42, y: -0.38}
      - {x: -1.26, y: -0.58}
      - {x: -1.16, y: -0.7}
      - {x: -1.0699999, y: -0.79999995}
      - {x: -0.78999996, y: -1.0799999}
      - {x: -0.7, y: -1.16}
      - {x: -0.63, y: -1.22}
      - {x: -0.48999998, y: -1.3299999}
      - {x: -0.29999998, y: -1.4699999}
      - {x: -0.14, y: -1.5799999}
      - {x: -0.04, y: -1.64}
      - {x: 0.32999998, y: -1.8299999}
      - {x: 0.51, y: -1.91}
      - {x: 0.71, y: -2}
      - {x: 1.03, y: -2.09}
      - {x: 1.23, y: -2.1399999}
      - {x: 1.37, y: -2.1699998}
      - {x: 1.6899999, y: -2.22}
      - {x: 1.78, y: -2.23}
      - {x: 2.23, y: -2.23}
      - {x: 2.23, y: -1.4399999}
      - {x: 2.21, y: -1.42}
--- !u!1 &2140356449939434585
GameObject:
  m_ObjectHideFlags: 0
  m_CorrespondingSourceObject: {fileID: 0}
  m_PrefabInstance: {fileID: 0}
  m_PrefabAsset: {fileID: 0}
  serializedVersion: 6
  m_Component:
  - component: {fileID: 2140356449939434584}
  - component: {fileID: 2140356449939434591}
  - component: {fileID: 2140356449939434590}
  m_Layer: 0
  m_Name: big purple circle
  m_TagString: Purple
  m_Icon: {fileID: 0}
  m_NavMeshLayer: 0
  m_StaticEditorFlags: 0
  m_IsActive: 1
--- !u!4 &2140356449939434584
Transform:
  m_ObjectHideFlags: 0
  m_CorrespondingSourceObject: {fileID: 0}
  m_PrefabInstance: {fileID: 0}
  m_PrefabAsset: {fileID: 0}
  m_GameObject: {fileID: 2140356449939434585}
  m_LocalRotation: {x: -0, y: -0, z: -0, w: 1}
  m_LocalPosition: {x: -2.22, y: 2.22, z: 0}
  m_LocalScale: {x: 1, y: 1, z: 1}
  m_Children: []
  m_Father: {fileID: 2140356449332496031}
  m_RootOrder: 0
  m_LocalEulerAnglesHint: {x: 0, y: 0, z: 0}
--- !u!212 &2140356449939434591
SpriteRenderer:
  m_ObjectHideFlags: 0
  m_CorrespondingSourceObject: {fileID: 0}
  m_PrefabInstance: {fileID: 0}
  m_PrefabAsset: {fileID: 0}
  m_GameObject: {fileID: 2140356449939434585}
  m_Enabled: 1
  m_CastShadows: 0
  m_ReceiveShadows: 0
  m_DynamicOccludee: 1
  m_MotionVectors: 1
  m_LightProbeUsage: 1
  m_ReflectionProbeUsage: 1
  m_RayTracingMode: 0
  m_RayTraceProcedural: 0
  m_RenderingLayerMask: 1
  m_RendererPriority: 0
  m_Materials:
  - {fileID: 10754, guid: 0000000000000000f000000000000000, type: 0}
  m_StaticBatchInfo:
    firstSubMesh: 0
    subMeshCount: 0
  m_StaticBatchRoot: {fileID: 0}
  m_ProbeAnchor: {fileID: 0}
  m_LightProbeVolumeOverride: {fileID: 0}
  m_ScaleInLightmap: 1
  m_ReceiveGI: 1
  m_PreserveUVs: 0
  m_IgnoreNormalsForChartDetection: 0
  m_ImportantGI: 0
  m_StitchLightmapSeams: 1
  m_SelectedEditorRenderState: 0
  m_MinimumChartSize: 4
  m_AutoUVMaxDistance: 0.5
  m_AutoUVMaxAngle: 89
  m_LightmapParameters: {fileID: 0}
  m_SortingLayerID: 0
  m_SortingLayer: 0
  m_SortingOrder: 0
  m_Sprite: {fileID: 8869823883085932140, guid: 4e55d34ad6c5aa74b91396def637b40b, type: 3}
  m_Color: {r: 1, g: 1, b: 1, a: 1}
  m_FlipX: 0
  m_FlipY: 0
  m_DrawMode: 0
  m_Size: {x: 4.46, y: 4.46}
  m_AdaptiveModeThreshold: 0.5
  m_SpriteTileMode: 0
  m_WasSpriteAssigned: 1
  m_MaskInteraction: 0
  m_SpriteSortPoint: 0
--- !u!60 &2140356449939434590
PolygonCollider2D:
  m_ObjectHideFlags: 0
  m_CorrespondingSourceObject: {fileID: 0}
  m_PrefabInstance: {fileID: 0}
  m_PrefabAsset: {fileID: 0}
  m_GameObject: {fileID: 2140356449939434585}
  m_Enabled: 1
  m_Density: 1
  m_Material: {fileID: 0}
  m_IsTrigger: 0
  m_UsedByEffector: 0
  m_UsedByComposite: 0
  m_Offset: {x: 0, y: 0}
  m_SpriteTilingProperty:
    border: {x: 0, y: 0, z: 0, w: 0}
    pivot: {x: 0.5, y: 0.5}
    oldSize: {x: 4.46, y: 4.46}
    newSize: {x: 4.46, y: 4.46}
    adaptiveTilingThreshold: 0.5
    drawMode: 0
    adaptiveTiling: 0
  m_AutoTiling: 0
  m_Points:
    m_Paths:
    - - {x: -1.38, y: -1.68}
      - {x: -1.3299999, y: -1.4699999}
      - {x: -1.3, y: -1.29}
      - {x: -1.24, y: -1.09}
      - {x: -1.1899999, y: -0.95}
      - {x: -1.1, y: -0.72999996}
      - {x: -0.97999996, y: -0.48}
      - {x: -0.96, y: -0.45999998}
      - {x: -0.85999995, y: -0.29}
      - {x: -0.76, y: -0.14}
      - {x: -0.61, y: 0.07}
      - {x: -0.5, y: 0.19999999}
      - {x: -0.5, y: 0.21}
      - {x: -0.21, y: 0.5}
      - {x: -0.19999999, y: 0.5}
      - {x: -0.07, y: 0.61}
      - {x: 0.19999999, y: 0.79999995}
      - {x: 0.31, y: 0.88}
      - {x: 0.41, y: 0.93}
      - {x: 0.48, y: 0.96999997}
      - {x: 0.66999996, y: 1.0799999}
      - {x: 0.69, y: 1.0799999}
      - {x: 0.79999995, y: 1.13}
      - {x: 1.01, y: 1.2099999}
      - {x: 1.14, y: 1.25}
      - {x: 1.23, y: 1.28}
      - {x: 1.4699999, y: 1.3399999}
      - {x: 1.77, y: 1.39}
      - {x: 1.86, y: 1.4}
      - {x: 1.9799999, y: 1.41}
      - {x: 2.22, y: 1.42}
      - {x: 2.23, y: 1.43}
      - {x: 2.23, y: 2.23}
      - {x: 1.8, y: 2.23}
      - {x: 1.56, y: 2.2}
      - {x: 1.4399999, y: 2.18}
      - {x: 1.3299999, y: 2.1599998}
      - {x: 0.91999996, y: 2.07}
      - {x: 0.71, y: 1.99}
      - {x: 0.48999998, y: 1.9}
      - {x: 0.42, y: 1.87}
      - {x: 0.03, y: 1.68}
      - {x: -0.04, y: 1.64}
      - {x: -0.14, y: 1.5799999}
      - {x: -0.38, y: 1.42}
      - {x: -0.58, y: 1.26}
      - {x: -0.7, y: 1.16}
      - {x: -0.79999995, y: 1.0699999}
      - {x: -1.0799999, y: 0.78999996}
      - {x: -1.22, y: 0.63}
      - {x: -1.37, y: 0.44}
      - {x: -1.4699999, y: 0.29999998}
      - {x: -1.5799999, y: 0.14}
      - {x: -1.67, y: -0.01}
      - {x: -1.8399999, y: -0.35}
      - {x: -1.91, y: -0.51}
      - {x: -1.99, y: -0.71999997}
      - {x: -2.07, y: -0.96}
      - {x: -2.1399999, y: -1.23}
      - {x: -2.19, y: -1.48}
      - {x: -2.21, y: -1.62}
      - {x: -2.23, y: -1.78}
      - {x: -2.23, y: -2.23}
      - {x: -1.43, y: -2.23}
      - {x: -1.42, y: -2.2}
      - {x: -1.41, y: -1.9499999}
--- !u!1 &2140356450236930649
GameObject:
  m_ObjectHideFlags: 0
  m_CorrespondingSourceObject: {fileID: 0}
  m_PrefabInstance: {fileID: 0}
  m_PrefabAsset: {fileID: 0}
  serializedVersion: 6
  m_Component:
  - component: {fileID: 2140356450236930648}
  - component: {fileID: 2140356450236930655}
  - component: {fileID: 2140356450236930654}
  m_Layer: 0
  m_Name: big blue circle
  m_TagString: Blue
  m_Icon: {fileID: 0}
  m_NavMeshLayer: 0
  m_StaticEditorFlags: 0
  m_IsActive: 1
--- !u!4 &2140356450236930648
Transform:
  m_ObjectHideFlags: 0
  m_CorrespondingSourceObject: {fileID: 0}
  m_PrefabInstance: {fileID: 0}
  m_PrefabAsset: {fileID: 0}
  m_GameObject: {fileID: 2140356450236930649}
  m_LocalRotation: {x: -0, y: -0, z: -0, w: 1}
  m_LocalPosition: {x: 2.22, y: -2.22, z: 0}
  m_LocalScale: {x: 1, y: 1, z: 1}
  m_Children: []
  m_Father: {fileID: 2140356449332496031}
  m_RootOrder: 3
  m_LocalEulerAnglesHint: {x: 0, y: 0, z: 0}
--- !u!212 &2140356450236930655
SpriteRenderer:
  m_ObjectHideFlags: 0
  m_CorrespondingSourceObject: {fileID: 0}
  m_PrefabInstance: {fileID: 0}
  m_PrefabAsset: {fileID: 0}
  m_GameObject: {fileID: 2140356450236930649}
  m_Enabled: 1
  m_CastShadows: 0
  m_ReceiveShadows: 0
  m_DynamicOccludee: 1
  m_MotionVectors: 1
  m_LightProbeUsage: 1
  m_ReflectionProbeUsage: 1
  m_RayTracingMode: 0
  m_RayTraceProcedural: 0
  m_RenderingLayerMask: 1
  m_RendererPriority: 0
  m_Materials:
  - {fileID: 10754, guid: 0000000000000000f000000000000000, type: 0}
  m_StaticBatchInfo:
    firstSubMesh: 0
    subMeshCount: 0
  m_StaticBatchRoot: {fileID: 0}
  m_ProbeAnchor: {fileID: 0}
  m_LightProbeVolumeOverride: {fileID: 0}
  m_ScaleInLightmap: 1
  m_ReceiveGI: 1
  m_PreserveUVs: 0
  m_IgnoreNormalsForChartDetection: 0
  m_ImportantGI: 0
  m_StitchLightmapSeams: 1
  m_SelectedEditorRenderState: 0
  m_MinimumChartSize: 4
  m_AutoUVMaxDistance: 0.5
  m_AutoUVMaxAngle: 89
  m_LightmapParameters: {fileID: 0}
  m_SortingLayerID: 0
  m_SortingLayer: 0
  m_SortingOrder: 0
  m_Sprite: {fileID: 4453572025967720582, guid: 4e55d34ad6c5aa74b91396def637b40b, type: 3}
  m_Color: {r: 1, g: 1, b: 1, a: 1}
  m_FlipX: 0
  m_FlipY: 0
  m_DrawMode: 0
  m_Size: {x: 4.46, y: 4.46}
  m_AdaptiveModeThreshold: 0.5
  m_SpriteTileMode: 0
  m_WasSpriteAssigned: 1
  m_MaskInteraction: 0
  m_SpriteSortPoint: 0
--- !u!60 &2140356450236930654
PolygonCollider2D:
  m_ObjectHideFlags: 0
  m_CorrespondingSourceObject: {fileID: 0}
  m_PrefabInstance: {fileID: 0}
  m_PrefabAsset: {fileID: 0}
  m_GameObject: {fileID: 2140356450236930649}
  m_Enabled: 1
  m_Density: 1
  m_Material: {fileID: 0}
  m_IsTrigger: 0
  m_UsedByEffector: 0
  m_UsedByComposite: 0
  m_Offset: {x: 0, y: 0}
  m_SpriteTilingProperty:
    border: {x: 0, y: 0, z: 0, w: 0}
    pivot: {x: 0.5, y: 0.5}
    oldSize: {x: 4.46, y: 4.46}
    newSize: {x: 4.46, y: 4.46}
    adaptiveTilingThreshold: 0.5
    drawMode: 0
    adaptiveTiling: 0
  m_AutoTiling: 0
  m_Points:
    m_Paths:
    - - {x: -1.11, y: -2.11}
      - {x: -0.89, y: -2.05}
      - {x: -0.71999997, y: -1.99}
      - {x: -0.48999998, y: -1.9}
      - {x: -0.42, y: -1.87}
      - {x: -0.01, y: -1.67}
      - {x: 0.14, y: -1.5799999}
      - {x: 0.16, y: -1.56}
      - {x: 0.38, y: -1.42}
      - {x: 0.53999996, y: -1.3}
      - {x: 0.7, y: -1.16}
      - {x: 0.78999996, y: -1.0799999}
      - {x: 1.0799999, y: -0.78999996}
      - {x: 1.22, y: -0.63}
      - {x: 1.3299999, y: -0.48999998}
      - {x: 1.4699999, y: -0.29999998}
      - {x: 1.5799999, y: -0.14}
      - {x: 1.7199999, y: 0.099999994}
      - {x: 1.88, y: 0.44}
      - {x: 1.91, y: 0.51}
      - {x: 2, y: 0.71}
      - {x: 2.1, y: 1.03}
      - {x: 2.18, y: 1.43}
      - {x: 2.2, y: 1.55}
      - {x: 2.23, y: 1.78}
      - {x: 2.23, y: 2.23}
      - {x: 1.43, y: 2.23}
      - {x: 1.42, y: 2.2}
      - {x: 1.41, y: 1.9499999}
      - {x: 1.4, y: 1.8399999}
      - {x: 1.38, y: 1.68}
      - {x: 1.36, y: 1.56}
      - {x: 1.31, y: 1.38}
      - {x: 1.3, y: 1.29}
      - {x: 1.23, y: 1.06}
      - {x: 1.1899999, y: 0.95}
      - {x: 1.1, y: 0.72999996}
      - {x: 1.1, y: 0.71}
      - {x: 0.96999997, y: 0.48}
      - {x: 0.82, y: 0.22999999}
      - {x: 0.61, y: -0.07}
      - {x: 0.5, y: -0.19999999}
      - {x: 0.5, y: -0.21}
      - {x: 0.21, y: -0.5}
      - {x: 0.19999999, y: -0.5}
      - {x: 0.07, y: -0.61}
      - {x: -0.19999999, y: -0.79999995}
      - {x: -0.34, y: -0.89}
      - {x: -0.69, y: -1.09}
      - {x: -0.71, y: -1.09}
      - {x: -0.78, y: -1.12}
      - {x: -0.97999996, y: -1.1999999}
      - {x: -1.23, y: -1.28}
      - {x: -1.4699999, y: -1.3399999}
      - {x: -1.77, y: -1.39}
      - {x: -1.86, y: -1.4}
      - {x: -1.9799999, y: -1.41}
      - {x: -2.22, y: -1.42}
      - {x: -2.23, y: -1.43}
      - {x: -2.23, y: -2.23}
      - {x: -1.8, y: -2.23}
      - {x: -1.62, y: -2.21}
      - {x: -1.38, y: -2.1699998}
