﻿age,automaticity,currentStreak,difficultyLevel,duration,gameChoice,longestStreak,mood,motivation,motivationAfter,time,type
0,1,0,HARD,HOUR,Great_Geometry_Game,0,Angry,1,5,64477251,NEGATIVE
7,5,0,TRIVIAL,FIVE_MIN,Block_Barricade_Buster,0,Sad,3,6,64269060,POSITIVE
8,5,1,TRIVIAL,FIVE_MIN,Block_Barricade_Buster,1,Sad,3,6,64269060,POSITIVE
0,1,1,TRIVIAL,FIVE_MIN,Block_Barricade_Buster,1,Happy,1,5,39739142,POSITIVE
0,1,0,MEDIUM,OVER_HOUR,Great_Geometry_Game,0,Happy,1,7,41409344,POSITIVE
0,3,0,HARD,OVER_HOUR,Block_Barricade_Buster,0,Happy,5,7,54762672,POSITIVE
0,3,0,HARD,OVER_HOUR,Block_Barricade_Buster,0,Happy,5,7,54762672,POSITIVE
0,3,0,HARD,OVER_HOUR,Block_Barricade_Buster,0,Happy,5,7,54762672,POSITIVE
0,5,0,HARD,OVER_HOUR,Great_Geometry_Game,0,Happy,6,8,56749080,POSITIVE
0,1,1,HARD,OVER_HOUR,Great_Geometry_Game,1,Tired,7,7,59535428,POSITIVE
0,6,1,HARD,OVER_HOUR,Rainbow_Rotation_Retaliation,1,Happy,5,5,62533516,POSITIVE
0,7,1,MEDIUM,OVER_HOUR,Block_Barricade_Buster,1,Tired,6,7,63218833,POSITIVE
0,5,1,MEDIUM,OVER_HOUR,Rainbow_Rotation_Retaliation,1,Happy,5,6,28327201,POSITIVE
0,7,1,MEDIUM,OVER_HOUR,Block_Barricade_Buster,1,Happy,6,7,35859941,POSITIVE
0,6,1,MEDIUM,HOUR,Great_Geometry_Game,1,Tired,7,8,51277042,POSITIVE
0,6,1,MEDIUM,OVER_HOUR,Great_Geometry_Game,1,Tired,7,8,51277042,POSITIVE
0,1,0,TRIVIAL,FIVE_MIN,Great_Geometry_Game,0,Happy,5,6,69199702,POSITIVE
0,7,1,MEDIUM,HOUR,Block_Barricade_Buster,1,Happy,3,6,77661402,POSITIVE
1,7,2,MEDIUM,OVER_HOUR,Block_Barricade_Buster,2,Happy,3,6,77661402,POSITIVE
0,1,0,TRIVIAL,FIFTEEN_MIN,Great_Geometry_Game,0,Happy,1,5,80004939,POSITIVE
0,1,0,EASY,HOUR,Great_Geometry_Game,0,Happy,1,5,80004939,POSITIVE
0,1,0,HARD,OVER_HOUR,Great_Geometry_Game,0,Happy,1,5,80004939,NEGATIVE
0,6,1,TRIVIAL,FIFTEEN_MIN,Great_Geometry_Game,1,Tired,1,4,45255250,POSITIVE
0,6,1,HARD,OVER_HOUR,Great_Geometry_Game,1,Tired,1,4,45255250,NEGATIVE
0,6,1,EASY,HOUR,Great_Geometry_Game,1,Tired,1,4,45255250,POSITIVE
0,6,1,TRIVIAL,FIVE_MIN,Great_Geometry_Game,1,Tired,1,4,45255250,POSITIVE
0,5,1,MEDIUM,HOUR,Block_Barricade_Buster,1,Happy,7,8,48783694,POSITIVE
1,5,2,MEDIUM,OVER_HOUR,Block_Barricade_Buster,2,Happy,7,8,48783694,POSITIVE
0,6,1,TRIVIAL,FIFTEEN_MIN,Rainbow_Rotation_Retaliation,1,Happy,7,6,55765585,POSITIVE
0,6,1,HARD,OVER_HOUR,Rainbow_Rotation_Retaliation,1,Happy,7,6,55765585,NEGATIVE
0,6,1,TRIVIAL,FIVE_MIN,Rainbow_Rotation_Retaliation,1,Happy,7,6,55765585,POSITIVE
0,6,1,EASY,HOUR,Rainbow_Rotation_Retaliation,1,Happy,7,6,55765585,POSITIVE
0,4,1,TRIVIAL,FIFTEEN_MIN,Rainbow_Rotation_Retaliation,1,Sad,5,8,58504970,POSITIVE
0,4,1,HARD,OVER_HOUR,Rainbow_Rotation_Retaliation,1,Sad,5,8,58504970,NEGATIVE
0,4,1,TRIVIAL,FIVE_MIN,Rainbow_Rotation_Retaliation,1,Sad,5,8,58504970,POSITIVE
0,4,1,EASY,HOUR,Rainbow_Rotation_Retaliation,1,Sad,5,8,58504970,POSITIVE
1,1,2,MEDIUM,HOUR,Great_Geometry_Game,2,Happy,6,8,63429835,POSITIVE
2,1,2,MEDIUM,OVER_HOUR,Great_Geometry_Game,2,Happy,6,8,63429835,POSITIVE
2,1,2,MEDIUM,OVER_HOUR,Great_Geometry_Game,2,Happy,6,8,63429835,POSITIVE
1,1,2,MEDIUM,HOUR,Great_Geometry_Game,2,Happy,6,8,63429835,POSITIVE
1,1,2,MEDIUM,HOUR,Great_Geometry_Game,2,Happy,6,8,63429835,POSITIVE
2,1,2,MEDIUM,OVER_HOUR,Great_Geometry_Game,2,Happy,6,8,63429835,POSITIVE
1,5,2,MEDIUM,HOUR,Block_Barricade_Buster,2,Happy,3,6,31908932,POSITIVE
2,5,2,MEDIUM,OVER_HOUR,Block_Barricade_Buster,2,Happy,3,6,31908932,POSITIVE
1,1,2,TRIVIAL,FIFTEEN_MIN,Rainbow_Rotation_Retaliation,2,Tired,6,8,54001918,POSITIVE
1,1,1,EASY,HOUR,Rainbow_Rotation_Retaliation,1,Tired,6,8,54001918,POSITIVE
1,1,2,TRIVIAL,FIVE_MIN,Rainbow_Rotation_Retaliation,2,Tired,6,8,54001918,POSITIVE
1,1,1,HARD,OVER_HOUR,Rainbow_Rotation_Retaliation,1,Tired,6,8,54001918,NEGATIVE
2,7,3,MEDIUM,HOUR,Rainbow_Rotation_Retaliation,3,Tired,6,7,45396944,POSITIVE
3,7,2,MEDIUM,OVER_HOUR,Rainbow_Rotation_Retaliation,2,Tired,6,7,45396944,POSITIVE
2,2,1,EASY,HOUR,Rainbow_Rotation_Retaliation,1,Tired,1,2,59401844,POSITIVE
2,2,2,TRIVIAL,FIVE_MIN,Rainbow_Rotation_Retaliation,2,Tired,1,2,59401844,POSITIVE
2,2,3,TRIVIAL,FIFTEEN_MIN,Rainbow_Rotation_Retaliation,3,Tired,1,2,59401844,POSITIVE
2,2,1,HARD,OVER_HOUR,Rainbow_Rotation_Retaliation,1,Tired,1,2,59401844,NEGATIVE
3,1,3,TRIVIAL,FIFTEEN_MIN,Rainbow_Rotation_Retaliation,3,Tired,7,6,6463731,POSITIVE
3,1,1,EASY,HOUR,Rainbow_Rotation_Retaliation,1,Tired,7,6,6463731,POSITIVE
3,1,1,TRIVIAL,FIVE_MIN,Rainbow_Rotation_Retaliation,2,Tired,7,6,6463731,POSITIVE
3,1,0,HARD,OVER_HOUR,Rainbow_Rotation_Retaliation,1,Tired,7,6,6463731,NEGATIVE
3,1,4,MEDIUM,HOUR,Block_Barricade_Buster,4,Happy,7,7,31242711,POSITIVE
4,1,2,MEDIUM,OVER_HOUR,Block_Barricade_Buster,2,Happy,7,7,31242711,POSITIVE
