{
  "project_info": {
    "project_number": "299451307207",
    "firebase_url": "https://level-up-5261f.firebaseio.com",
    "project_id": "level-up-5261f",
    "storage_bucket": "level-up-5261f.appspot.com"
  },
  "client": [
    {
      "client_info": {
        "mobilesdk_app_id": "1:299451307207:android:d024f256228439f88e1ae2",
        "android_client_info": {
          "package_name": "com.example.levelup"
        }
      },
      "oauth_client": [
        {
          "client_id": "299451307207-pkgl2e02mo0ogtls3vudl8qjmpl7shrg.apps.googleusercontent.com",
          "client_type": 1,
          "android_info": {
            "package_name": "com.example.levelup",
            "certificate_hash": "162690ca7e9415cf5aa527bf728192960ef9eae0"
          }
        },
        {
          "client_id": "299451307207-q5dt7md0qs11f7647rsdfjvlrf72qa3e.apps.googleusercontent.com",
          "client_type": 1,
          "android_info": {
            "package_name": "com.example.levelup",
            "certificate_hash": "60d4e802b0c5a9e9ab7847ae059f3ba1376d12fb"
          }
        },
        {
          "client_id": "299451307207-tadd6h01b0hbnbi2hotc0ucku7ap52fj.apps.googleusercontent.com",
          "client_type": 3
        }
      ],
      "api_key": [
        {
          "current_key": "AIzaSyDTwg0QeMeGLbn5xQg_u0mh2_wieF1oA4k"
        }
      ],
      "services": {
        "appinvite_service": {
          "other_platform_oauth_client": [
            {
              "client_id": "299451307207-tadd6h01b0hbnbi2hotc0ucku7ap52fj.apps.googleusercontent.com",
              "client_type": 3
            }
          ]
        }
      }
    }
  ],
  "configuration_version": "1"
}